,gene,x1,x2,x3,x4,p=0,p=1
0,x1,0.0,,0.0,,1-p,p
1,x1,0.0,,1.0,,1-p,p
2,x1,1.0,,0.0,,p,1-p
3,x1,1.0,,1.0,,1-p,p
4,x2,0.0,0.0,,0.0,1-p,p
5,x2,0.0,0.0,,1.0,1-p,p
6,x2,0.0,1.0,,0.0,p,1-p
7,x2,0.0,1.0,,1.0,1-p,p
8,x2,1.0,0.0,,0.0,p,1-p
9,x2,1.0,0.0,,1.0,1-p,p
10,x2,1.0,1.0,,0.0,p,1-p
11,x2,1.0,1.0,,1.0,p,1-p
12,x3,,0.0,0.0,,1-p,p
13,x3,,0.0,1.0,,p,1-p
14,x3,,1.0,0.0,,p,1-p
15,x3,,1.0,1.0,,p,1-p
16,x4,,,0.0,0.0,1-p,p
17,x4,,,0.0,1.0,p,1-p
18,x4,,,1.0,0.0,p,1-p
19,x4,,,1.0,1.0,p,1-p
