gene,x1,x2,x3,x4,p=0,p=1
x1,0,,0,,1,0
x1,0,,1,,1,0
x1,1,,0,,0,1
x1,1,,1,,1,0
x2,0,0,,0,1,0
x2,0,0,,1,1,0
x2,0,1,,0,0,1
x2,0,1,,1,1,0
x2,1,0,,0,0,1
x2,1,0,,1,1,0
x2,1,1,,0,0,1
x2,1,1,,1,0,1
x3,,0,0,,1,0
x3,,0,1,,0,1
x3,,1,0,,0,1
x3,,1,1,,0,1
x4,,,0,0,1,0
x4,,,0,1,0,1
x4,,,1,0,0,1
x4,,,1,1,0,1